<?xml version="1.0" encoding="UTF-8" standalone="no"?>
<svg
   xmlns:dc="http://purl.org/dc/elements/1.1/"
   xmlns:cc="http://creativecommons.org/ns#"
   xmlns:rdf="http://www.w3.org/1999/02/22-rdf-syntax-ns#"
   xmlns:svg="http://www.w3.org/2000/svg"
   xmlns="http://www.w3.org/2000/svg"
   xmlns:sodipodi="http://sodipodi.sourceforge.net/DTD/sodipodi-0.dtd"
   xmlns:inkscape="http://www.inkscape.org/namespaces/inkscape"
   width="480"
   height="300"
   viewBox="0 0 127 79.375002"
   version="1.1"
   id="svg8"
   inkscape:version="1.0.2 (e86c870879, 2021-01-15, custom)"
   sodipodi:docname="play.svg">
  <defs
     id="defs2" />
  <sodipodi:namedview
     id="base"
     pagecolor="#4c5950"
     bordercolor="#666666"
     borderopacity="1.0"
     inkscape:pageopacity="0.23137255"
     inkscape:pageshadow="2"
     inkscape:zoom="0.7"
     inkscape:cx="-47.359013"
     inkscape:cy="-16.780984"
     inkscape:document-units="px"
     inkscape:current-layer="layer1"
     inkscape:document-rotation="0"
     showgrid="false"
     units="px"
     inkscape:window-width="1680"
     inkscape:window-height="1024"
     inkscape:window-x="0"
     inkscape:window-y="27"
     inkscape:window-maximized="0" />
  <metadata
     id="metadata5">
    <rdf:RDF>
      <cc:Work
         rdf:about="">
        <dc:format>image/svg+xml</dc:format>
        <dc:type
           rdf:resource="http://purl.org/dc/dcmitype/StillImage" />
        <dc:title></dc:title>
      </cc:Work>
    </rdf:RDF>
  </metadata>
  <g
     inkscape:label="Calque 1"
     inkscape:groupmode="layer"
     id="layer1">
    <rect
       style="fill:#1e2d25;fill-opacity:0.69999999;stroke:none;stroke-width:0.180028;stop-color:#000000"
       id="rect23"
       width="33.977398"
       height="36.154064"
       x="46.511303"
       y="21.610468"
       ry="8.9449234" />
    <path
       style="fill:#b3dbae;fill-opacity:0.69999999;stroke:none;stroke-width:0.180028px;stroke-linecap:butt;stroke-linejoin:miter;stroke-opacity:1"
       d="M 58.594379,48.475013 V 30.899987 l 12.697847,9.335518 z"
       id="path25"
       sodipodi:nodetypes="cccc" />
  </g>
</svg>
